19 27 28 29 
18 28 25 29 
15 25 18 28 
18 29 25 30 
19 28 18 29 
15 13 10 18 
15 10 11 18 
19 29 18 30 
15 13 18 25 
15 18 11 28 
11 18 19 28 
19 27 29 30 
46 94 73 95 
94 96 97 98 
51 69 83 95 
21 24 94 96 
20 73 46 94 
32 99 45 100 
32 64 99 100 
65 99 101 102 
32 99 102 103 
88 101 93 104 
80 104 87 105 
77 88 87 104 
90 97 94 106 
24 74 20 94 
74 90 94 106 
90 105 97 106 
26 96 7 105 
26 96 105 106 
24 74 94 106 
24 94 96 106 
94 97 95 98 
96 97 104 105 
56 58 95 107 
46 44 95 107 
38 75 37 107 
37 75 54 107 
58 54 75 107 
42 37 58 107 
46 95 73 107 
93 99 100 108 
45 100 55 109 
55 84 100 108 
64 100 109 110 
99 101 103 104 
84 93 100 108 
43 39 67 109 
32 100 45 109 
45 55 100 108 
45 55 40 109 
43 67 64 109 
64 86 99 100 
92 101 88 102 
93 98 99 108 
90 104 97 105 
101 102 103 104 
65 85 92 101 
99 101 102 103 
32 64 100 109 
65 64 86 99 
52 83 84 108 
95 98 97 108 
44 98 95 108 
55 52 84 108 
73 74 70 94 
55 100 84 110 
56 58 51 95 
45 98 44 108 
21 95 44 98 
42 58 56 107 
38 73 75 107 
92 85 88 101 
36 82 35 79 
44 95 56 108 
32 102 36 103 
32 99 65 102 
36 65 66 102 
36 65 34 66 
65 61 66 92 
82 92 78 102 
26 105 81 106 
26 24 96 106 
24 72 74 106 
81 80 76 105 
80 87 76 105 
76 87 90 105 
76 105 90 106 
68 81 76 106 
6 99 32 103 
98 99 103 104 
40 55 57 109 
80 103 104 105 
4 79 80 103 
93 99 86 100 
4 36 79 103 
45 99 98 108 
93 101 99 104 
24 81 72 106 
84 100 86 110 
80 77 87 104 
82 78 79 102 
21 94 95 98 
69 73 89 95 
93 99 98 104 
6 96 98 103 
55 109 100 110 
53 84 91 110 
48 91 63 110 
57 48 49 67 
57 48 67 110 
48 53 91 110 
87 104 90 105 
88 102 101 104 
93 97 98 108 
21 94 46 95 
83 95 97 108 
93 98 97 104 
21 46 44 95 
14 4 80 105 
14 80 81 105 
6 7 96 103 
88 93 87 104 
6 7 21 96 
80 103 79 104 
4 103 80 105 
64 63 86 110 
80 79 77 104 
89 90 93 97 
74 90 70 94 
81 105 76 106 
96 98 103 104 
7 96 103 105 
79 88 77 104 
41 56 55 108 
93 90 87 104 
6 98 45 99 
44 56 41 108 
45 100 99 108 
83 89 93 97 
56 95 83 108 
65 86 85 101 
56 51 83 95 
89 95 94 97 
64 86 100 110 
83 93 84 108 
32 47 31 109 
65 64 62 86 
55 84 53 110 
58 75 95 107 
93 86 99 101 
69 89 83 95 
79 103 102 104 
75 73 95 107 
84 93 86 100 
6 98 99 103 
91 84 86 110 
56 83 52 108 
63 91 86 110 
65 62 85 86 
4 7 103 105 
36 82 79 102 
32 65 36 102 
36 102 79 103 
7 32 36 103 
79 78 88 102 
66 59 82 92 
36 66 82 102 
65 61 92 85 
36 66 33 82 
65 62 61 85 
14 81 26 105 
33 66 60 82 
74 71 70 90 
73 70 89 94 
69 75 73 95 
38 46 73 107 
20 74 73 94 
94 97 96 106 
12 72 24 81 
83 97 93 108 
72 68 71 106 
71 68 76 106 
66 92 82 102 
45 41 55 108 
72 81 68 106 
73 94 89 95 
26 7 4 105 
47 40 39 109 
26 81 24 106 
50 75 69 95 
71 76 90 106 
37 54 58 107 
93 97 90 104 
78 92 88 102 
66 59 60 82 
66 61 59 92 
48 63 67 110 
32 64 65 99 
39 57 67 109 
31 47 43 109 
57 67 109 110 
65 92 66 102 
36 34 33 66 
57 55 53 110 
32 31 64 109 
57 109 55 110 
39 40 57 109 
59 78 82 92 
44 56 95 107 
42 56 44 107 
83 95 89 97 
56 52 55 108 
58 75 50 95 
65 101 92 102 
6 21 44 98 
65 99 86 101 
55 52 53 84 
31 43 64 109 
88 85 93 101 
64 67 63 110 
43 47 39 109 
64 109 67 110 
45 41 40 55 
42 41 44 56 
58 54 50 75 
79 78 77 88 
47 45 40 109 
38 37 46 107 
32 31 34 65 
6 44 45 98 
6 96 21 98 
46 37 42 107 
57 53 48 110 
4 36 35 79 
74 71 90 106 
32 34 36 65 
96 104 103 105 
46 42 44 107 
6 45 32 99 
32 31 65 64 
79 102 88 104 
21 24 20 94 
56 51 52 83 
14 12 26 81 
36 33 35 82 
32 45 47 109 
96 97 98 104 
93 85 86 101 
74 72 71 106 
39 57 49 67 
20 38 46 73 
51 50 69 95 
26 24 21 96 
64 63 62 86 
70 90 89 94 
89 94 90 97 
96 97 105 106 
45 44 41 108 
14 26 4 105 
69 73 70 89 
26 12 24 81 
4 7 36 103 
21 96 94 98 
58 50 51 95 
6 32 7 103 
21 20 46 94 
26 21 7 96 
80 77 76 87 
118 134 135 136 
137 132 125 131 
117 132 115 134 
117 118 132 134 
116 115 128 134 
126 135 134 136 
115 132 125 134 
17 16 133 138 
122 120 138 139 
17 138 133 140 
127 139 138 140 
8 131 137 140 
124 137 131 140 
17 133 130 140 
124 127 137 140 
8 17 130 140 
122 138 129 139 
8 131 112 137 
132 134 136 137 
125 124 126 137 
126 136 134 137 
115 125 128 134 
125 126 134 137 
129 138 127 139 
112 132 114 137 
127 123 139 140 
119 123 133 139 
120 133 138 139 
120 119 133 139 
113 111 118 132 
128 125 126 134 
126 124 127 137 
116 134 128 135 
129 127 123 139 
139 133 140 123 
124 131 130 140 
23 138 17 140 
16 120 133 138 
117 115 118 134 
128 134 126 135 
114 132 113 136 
118 115 116 134 
122 129 121 139 
125 131 124 137 
8 130 131 140 
22 122 120 138 
133 140 123 130 
114 132 136 137 
121 129 119 139 
118 134 116 135 
124 130 123 140 
112 111 113 132 
134 137 132 125 
113 132 118 136 
111 117 118 132 
112 113 114 132 
119 129 123 139 
112 131 132 137 
23 22 17 138 
8 112 114 137 
2 112 8 131 
23 17 8 140 
17 22 16 138 
22 120 16 138 
124 123 127 140 
2 8 17 130 
133 138 139 140 
122 121 120 139 
2 131 8 130 
118 132 134 136 
120 121 119 139 
142 144 148 149 
141 147 145 148 
143 147 141 148 
145 148 147 149 
3 144 149 150 
143 142 144 148 
144 147 148 149 
143 144 147 148 
142 141 146 148 
5 1 146 149 
142 148 146 149 
3 149 9 150 
3 142 1 149 
1 142 146 149 
141 145 146 148 
3 5 9 149 
146 148 145 149 
3 1 5 149 
143 141 142 148 
3 144 142 149 
15 155 159 28 
15 13 25 159 
15 159 25 28 
25 159 158 30 
15 155 13 159 
155 154 13 159 
13 154 25 159 
25 28 159 29 
154 158 25 159 
25 29 159 30 
171 127 138 140 
171 138 173 140 
23 173 138 140 
174 137 170 140 
152 137 174 140 
170 137 127 140 
174 170 173 140 
23 152 173 140 
170 126 127 137 
118 172 176 135 
169 128 126 135 
168 116 128 135 
168 128 169 135 
152 114 174 137 
171 170 127 140 
176 169 174 136 
169 135 126 136 
171 129 122 138 
170 136 126 137 
118 116 172 135 
171 127 129 138 
118 135 176 136 
168 169 176 135 
171 166 122 129 
166 121 122 129 
23 156 22 138 
174 169 170 136 
157 175 23 173 
152 174 173 140 
152 8 137 140 
174 136 170 137 
170 169 126 136 
113 118 176 136 
152 8 114 137 
114 176 161 174 
156 175 167 122 
23 8 152 140 
171 173 170 140 
157 156 23 175 
113 118 172 176 
168 176 172 135 
113 172 160 176 
114 113 176 136 
114 160 161 176 
152 114 161 174 
114 176 174 136 
156 122 22 138 
175 171 122 138 
156 175 122 138 
157 23 152 173 
167 175 166 122 
23 175 156 138 
175 173 171 138 
176 135 169 136 
168 172 116 135 
175 171 166 122 
114 136 174 137 
23 173 175 138 
114 113 160 176 
153 151 165 149 
163 145 147 149 
164 146 145 149 
5 164 151 149 
151 164 165 149 
9 5 153 149 
153 5 151 149 
164 145 162 149 
163 162 145 149 
165 162 163 149 
165 164 162 149 
5 146 164 149 
19 18 181 30 
18 25 181 30 
180 181 182 30 
19 181 180 30 
180 182 27 30 
19 180 27 30 
19 18 179 181 
19 179 180 181 
182 29 27 30 
177 184 144 150 
3 177 144 150 
9 149 186 150 
184 186 144 150 
184 186 185 144 
186 149 144 150 
9 186 178 150 
177 178 184 150 
185 147 144 149 
183 143 144 147 
186 185 144 149 
9 178 177 150 
3 9 177 150 
185 183 144 147 
184 185 183 144 
178 186 184 150 
189 158 159 30 
189 159 29 30 
189 188 158 30 
188 181 25 30 
188 25 158 30 
189 182 188 30 
182 181 188 30 
189 29 182 30 
153 165 191 186 
191 165 163 186 
163 147 185 149 
163 190 186 185 
191 163 190 186 
9 153 186 149 
153 165 186 149 
9 187 178 186 
9 153 187 186 
153 191 187 186 
163 185 186 149 
165 163 186 149 
193 19 27 28 
195 28 27 29 
192 15 11 28 
194 15 192 28 
193 27 195 28 
193 194 192 28 
193 195 194 28 
193 11 19 28 
193 192 11 28 
197 159 196 28 
195 197 28 29 
197 159 28 29 
197 196 194 28 
194 196 155 28 
195 197 194 28 
194 155 15 28 
196 159 155 28 
198 19 180 27 
193 19 198 27 
195 27 182 29 
195 199 182 27 
198 180 199 27 
195 198 199 27 
199 180 182 27 
193 198 195 27 
197 189 159 29 
195 199 200 182 
200 182 189 29 
195 200 197 29 
197 200 189 29 
195 182 200 29 
47 45 40 176 174 169 
43 31 47 172 160 176 
46 44 21 175 173 157 
38 37 46 167 166 175 
45 32 6 174 161 152 
44 41 45 173 170 174 
46 21 20 175 157 156 
41 40 45 170 169 174 
31 32 47 160 161 176 
44 45 6 173 174 152 
37 42 46 166 171 175 
44 6 21 173 152 157 
47 40 39 176 169 168 
41 44 42 170 173 171 
46 42 44 175 171 173 
47 32 45 176 161 174 
43 47 39 172 176 168 
38 46 20 167 175 156 
24 26 12 158 159 154 
26 14 12 159 155 154 
36 34 33 165 163 162 
35 4 36 164 151 165 
4 7 36 151 153 165 
35 36 33 164 165 162 
26 24 21 159 158 189 
24 20 21 158 188 189 
31 34 32 190 163 191 
32 34 36 191 163 165 
7 32 36 153 191 165 
6 32 7 187 191 153 
23 22 17 182 181 180 
22 16 17 181 179 180 
111 113 112 183 185 184 
112 113 114 184 185 186 
8 112 114 178 184 186 
2 112 8 177 184 178 
157 156 23 189 188 182 
23 156 22 182 188 181 
152 114 8 187 186 178 
114 161 160 186 191 190 
152 161 114 187 191 186 
114 160 113 186 190 185 
26 7 4 159 197 196 
14 26 4 155 159 196 
7 26 21 197 159 189 
6 7 21 200 197 189 
8 23 17 199 182 180 
2 8 17 198 199 180 
8 152 23 199 200 182 
152 157 23 200 189 182 
9 3 5 195 193 194 
1 5 3 192 194 193 
153 5 151 197 194 196 
9 5 153 195 194 197 
9 178 177 195 199 198 
3 9 177 193 195 198 
9 187 178 195 200 199 
9 153 187 195 197 200 
